<?xml version="1.0" encoding="utf-8"?>
<!-- Generator: Adobe Illustrator 27.2.0, SVG Export Plug-In . SVG Version: 6.00 Build 0)  -->
<svg version="1.1" id="Layer_1" xmlns="http://www.w3.org/2000/svg" xmlns:xlink="http://www.w3.org/1999/xlink" x="0px" y="0px"
	 viewBox="0 0 296 97" style="enable-background:new 0 0 296 97;" xml:space="preserve">
<style type="text/css">
	.st0{fill:#0F7068;}
	.st1{opacity:0.5;}
</style>
<path class="st0" d="M27.7,28c-3-1.5-6.5-2.3-10.8-2.3H0V29l3.9,0.4C4,31.8,4,34.1,4,36.4v15.7c0,2.3,0,4.6-0.1,6.9L0,59.4v3.4h16
	c4.3,0,8-0.8,11.2-2.2s5.5-3.6,7.2-6.4c1.7-2.8,2.5-6.1,2.5-10c0-3.7-0.8-7-2.3-9.7C32.9,31.6,30.7,29.5,27.7,28z M22.9,55.3
	c-1.7,2.6-3.9,3.9-6.7,3.9h-0.8c0-2.3-0.1-4.7-0.1-7.1c0-2.4,0-4.7,0-7.1v0v-1.8c0-2.4,0-4.8,0-7.1c0-2.4,0-4.7,0.1-7h0.7
	c2.8,0,5.1,1.3,6.8,3.8s2.6,6.3,2.6,11.1S24.6,52.7,22.9,55.3z M65.3,41.1C64,39,62.3,37.2,60,36c-2.2-1.2-4.8-1.9-7.8-1.9
	s-5.5,0.6-7.8,1.9s-4,3-5.3,5.2c-1.3,2.2-1.9,4.7-1.9,7.5s0.6,5.4,1.7,7.6c1.1,2.3,2.8,4.1,5.1,5.4s5,2,8.2,2l0,0
	c3.3,0,6-0.6,8.2-1.9c2.2-1.3,3.9-3.1,5.1-5.3c1.2-2.3,1.7-4.8,1.7-7.7S66.6,43.3,65.3,41.1z M55,57.8c-0.6,1.8-1.5,2.7-2.8,2.7
	s-2.2-0.9-2.8-2.7s-0.9-4.8-0.9-8.9s0.3-7.1,0.9-8.9s1.5-2.7,2.8-2.7s2.2,0.9,2.8,2.7c0.6,1.8,0.9,4.8,0.9,8.9
	C55.9,53,55.6,56,55,57.8z M114,55V44.3c0-3.3-0.7-5.9-2-7.6c-1.3-1.7-3.6-2.6-6.7-2.6c-1.6,0-3,0.3-4.3,1c-1.3,0.7-2.8,2-4.4,4
	c-1.2-3.3-3.8-5-7.9-5c-1.7,0-3.2,0.4-4.5,1.1c-1.3,0.7-2.6,1.9-4,3.5L80,34.8l-1-0.6l-12.6,3.9v2.3l3.1,0.5c0.1,0.8,0.1,1.4,0.1,2
	c0,0.6,0,1.2,0,1.8v10.2c0,1.5,0,3-0.1,4.3L67,59.9v2.9l0,0h15.7v-2.9l-2.2-0.5c0-1.4-0.1-2.9-0.1-4.5V41.7c0.6-0.4,1.2-0.8,1.8-1
	c0.6-0.3,1.2-0.4,1.8-0.4c1.1,0,1.8,0.4,2.2,1.1s0.5,2,0.5,3.7v9.8c0,1.5,0,3-0.1,4.3l-2.5,0.6v2.9h15.3v-2.9l-2.2-0.5
	c0-1.4-0.1-2.9-0.1-4.4V43.7c0-0.4,0-0.7,0-1.1c0-0.3,0-0.7-0.1-1c1.2-0.9,2.4-1.4,3.6-1.4c1,0,1.7,0.3,2.1,1
	c0.4,0.7,0.6,1.9,0.6,3.9v9.8c0,1.6,0,3-0.1,4.4l-2.2,0.6v2.9h15.2v-2.9l-2.4-0.5C114.1,58,114,56.6,114,55z M124.6,30.8
	c1.4,0,2.7-0.5,3.7-1.4c1-0.9,1.5-2.1,1.5-3.5s-0.5-2.6-1.5-3.5c-1-0.9-2.3-1.4-3.7-1.4s-2.7,0.5-3.7,1.4c-1,0.9-1.5,2.1-1.5,3.5
	c0,1.4,0.5,2.6,1.5,3.5C122,30.3,123.2,30.8,124.6,30.8z M130.2,55V43.3l0.2-8.5l-1-0.6l-13.2,3.9v2.3l3.1,0.5
	c0.1,1.1,0.1,2.2,0.1,3.3c0,1,0,2.3,0,3.9v6.8c0,1.5,0,3-0.1,4.4l-2.6,0.6v2.9l0,0h15.9v-2.9l-2.4-0.5C130.2,58,130.2,56.5,130.2,55
	z M154.1,56.8c-0.9,0.5-2,0.8-3.2,0.8c-2.3,0-4.1-0.8-5.4-2.5c-1.4-1.7-2-4.1-2-7.2c0-2.6,0.3-4.7,1-6.2c0.7-1.5,1.5-2.6,2.5-3.3
	c1-0.7,1.9-1,2.8-1h0.2l0.1,2.4c0.1,2.5,0.7,4.2,1.6,5.1c1,0.9,2.1,1.4,3.2,1.4c2.2,0,3.6-1.1,4.3-3.3c-0.1-1.5-0.6-3-1.5-4.3
	s-2.2-2.4-3.8-3.2c-1.6-0.8-3.5-1.2-5.6-1.2c-3,0-5.8,0.6-8.2,1.7c-2.5,1.2-4.4,2.8-5.9,5.1c-1.4,2.2-2.2,4.8-2.2,8.1
	c0,3.3,0.7,6,2.1,8.2c1.4,2.2,3.2,3.8,5.4,4.9c2.2,1.1,4.6,1.6,7.2,1.6l0,0c2.7,0,5.1-0.5,7.2-1.6c2.1-1.1,3.7-2.8,4.9-5.1l-2.2-2.2
	C155.9,55.6,155,56.3,154.1,56.8z M187.1,41.1c-1.3-2.2-3.1-3.9-5.3-5.1c-2.2-1.2-4.8-1.9-7.8-1.9c-2.9,0-5.5,0.6-7.8,1.9
	s-4,3-5.3,5.2s-1.9,4.7-1.9,7.5s0.6,5.4,1.7,7.6c1.1,2.3,2.8,4.1,5.1,5.4c2.2,1.3,5,2,8.2,2l0,0c3.3,0,6-0.6,8.2-1.9
	c2.2-1.3,3.9-3.1,5.1-5.3c1.2-2.3,1.7-4.8,1.7-7.7S188.4,43.3,187.1,41.1z M176.8,57.8c-0.6,1.8-1.5,2.7-2.8,2.7s-2.2-0.9-2.8-2.7
	c-0.6-1.8-0.9-4.8-0.9-8.9s0.3-7.1,0.9-8.9c0.6-1.8,1.5-2.7,2.8-2.7s2.2,0.9,2.8,2.7c0.6,1.8,0.9,4.8,0.9,8.9
	C177.7,53,177.4,56,176.8,57.8z M202.1,55.1c0-1.4,0-2.8,0-4.2V30.3l0.2-7.9l-1-0.6l-13.1,2.6v2.6l3.1,0.6v23.4c0,1.4,0,2.8,0,4.2
	c0,1.4-0.1,2.8-0.1,4.3l-2.6,0.6v2.9l0,0h16.1v-2.9l-2.6-0.5C202.2,57.9,202.2,56.5,202.1,55.1z M232.3,41.1
	c-1.3-2.2-3.1-3.9-5.3-5.1c-2.2-1.2-4.8-1.9-7.8-1.9s-5.5,0.6-7.8,1.9s-4,3-5.3,5.2c-1.3,2.2-1.9,4.7-1.9,7.5s0.6,5.4,1.7,7.6
	c1.1,2.3,2.8,4.1,5.1,5.4s5,2,8.2,2l0,0c3.3,0,6-0.6,8.2-1.9c2.2-1.3,3.9-3.1,5.1-5.3c1.2-2.3,1.7-4.8,1.7-7.7
	S233.6,43.3,232.3,41.1z M222,57.8c-0.6,1.8-1.5,2.7-2.8,2.7s-2.2-0.9-2.8-2.7c-0.6-1.8-0.9-4.8-0.9-8.9s0.3-7.1,0.9-8.9
	c0.6-1.8,1.5-2.7,2.8-2.7s2.2,0.9,2.8,2.7s0.9,4.8,0.9,8.9C222.9,53,222.6,56,222,57.8z M247,52.3C247,52.3,247,52.3,247,52.3
	C247,52.3,247,52.3,247,52.3L247,52.3z M256.8,36.9c-1-0.8-2.3-1.5-3.9-2c-1.6-0.5-3.6-0.7-5.8-0.7c-3,0-5.4,0.4-7.2,1.2
	c-1.8,0.8-3.2,2-4,3.3c-0.8,1.4-1.3,2.9-1.3,4.6c0,1.5,0.4,2.9,1.1,4.2c0.7,1.3,1.9,2.4,3.6,3.2c-1.4,1.2-2.5,2.4-3.4,3.7
	c-0.9,1.3-1.3,2.6-1.3,4.1c0,0.9,0.2,1.8,0.7,2.6c0.5,0.8,1.3,1.5,2.5,2c-1.4,0.6-2.5,1.4-3.2,2.4c-0.8,1-1.1,2.1-1.1,3.3
	c0,1.1,0.3,2.1,1,3.1c0.7,1,1.9,1.8,3.7,2.5c1.8,0.7,4.3,1,7.6,1c3.9,0,7.1-0.5,9.8-1.5c2.6-1,4.6-2.3,6-3.9c1.3-1.7,2-3.5,2-5.6
	c0-1.7-0.4-3.2-1.2-4.5c-0.8-1.3-2.1-2.3-4-3.1c-1.9-0.7-4.4-1.1-7.6-1.1h-6.3c-1.2,0-2-0.2-2.5-0.5s-0.8-0.8-0.8-1.5
	c0-0.9,0.1-1.6,0.4-2.2c1.6,0.4,3.4,0.7,5.6,0.7c3,0,5.4-0.4,7.2-1.2c1.8-0.8,3.2-1.9,4-3.3c0.8-1.4,1.3-2.8,1.3-4.4
	c0-1.5-0.3-2.9-0.9-4h5.3v-4.7l-0.9-0.6L256.8,36.9z M242.4,65c1,0.1,2.2,0.1,3.4,0.1h5.7c1.3,0,2.3,0.3,2.8,0.9
	c0.5,0.6,0.8,1.2,0.8,1.9c0,1.1-0.7,1.9-2,2.7c-1.4,0.7-3.5,1.1-6.2,1.1s-4.7-0.4-5.9-1.1s-1.8-1.9-1.8-3.6l0,0c0-1,0.2-1.8,0.5-2.6
	C240.4,64.8,241.4,64.9,242.4,65z M249.5,47.8c-0.5,1.1-1.3,1.7-2.5,1.7s-1.9-0.6-2.4-1.7c-0.4-1.1-0.7-2.6-0.7-4.6s0.2-3.5,0.7-4.6
	c0.5-1.1,1.3-1.6,2.3-1.6s1.9,0.5,2.4,1.6c0.5,1.1,0.8,2.6,0.8,4.6C250.2,45.2,250,46.7,249.5,47.8z M285.4,35.1v2.7l0,0l3.3,0.7
	L284,52.1l-5-13.7l3.4-0.7v-2.6h-17.2v2.7l2.5,0.5l11.8,27c-0.4,1.1-0.9,2.1-1.5,3c-0.6,1-1.2,1.8-1.8,2.6l-0.4-0.6
	c-0.8-1.2-1.6-2-2.6-2.4c-1-0.3-1.8-0.5-2.6-0.5c-1.2,0-2.3,0.3-3.2,1c-1,0.7-1.5,1.7-1.8,3.2c0.2,1.3,0.8,2.3,2,3.2
	c1.2,0.9,2.6,1.3,4.1,1.3c1.9,0,3.4-0.4,4.6-1.2c1.2-0.8,2.3-1.9,3.1-3.4c0.9-1.5,1.7-3.2,2.5-5.3l10.8-27.8l3.4-0.6v-2.7H285.4z"/>
<g class="st1">
	<path class="st0" d="M230.4,69.8H0v3h231.3C230.8,71.9,230.5,70.9,230.4,69.8L230.4,69.8z"/>
	<path class="st0" d="M282,72.8h9.8l1.2-3h-9.5C283,70.9,282.5,71.9,282,72.8z"/>
</g>
</svg>
