<?xml version="1.0" encoding="utf-8"?>
<!-- Generator: Adobe Illustrator 19.1.0, SVG Export Plug-In . SVG Version: 6.00 Build 0)  -->
<svg version="1.1" id="Layer_1" xmlns="http://www.w3.org/2000/svg" xmlns:xlink="http://www.w3.org/1999/xlink" x="0px" y="0px"
	 viewBox="-577 245 13 13" style="enable-background:new -577 245 13 13;" xml:space="preserve">
<style type="text/css">
	.st0{fill:none;stroke:#FFFFFF;stroke-width:2;stroke-linecap:round;stroke-linejoin:round;stroke-miterlimit:10;}
	.st1{fill:#FFFFFF;}
</style>
<path class="st0" d="M-574.9,253.1c-1.6-1.6-1.5-4.2,0.1-5.9s4.3-1.7,5.9-0.1s1.5,4.2-0.1,5.9C-570.7,254.6-573.3,254.7-574.9,253.1
	z"/>
<rect x="-568.3" y="251.2" transform="matrix(0.7071 -0.7071 0.7071 0.7071 -346.268 -326.4662)" class="st1" width="2.1" height="7.1"/>
</svg>
